Recoding CHMS medication variables • chmsflow
…
[1] 1

is_ace_med_cycles1to2(atc_101a = "C09AA02", mhr_101b = 6) # returns 0 (not taken recently)

[1] 0

Cycles 3–6 – one row per medication per respondent with two columns: meucatc (ATC code) and npi_25b (time last taken). Classify per row, then aggregate across rows per respondent:

cycle3_meds |>
  mutate(ace_med = is_ace_inhibitor(meucatc, npi_25b)) |>
  aggregate_meds_by_person(variables = "ace_med")

# A tibble: 50 × 2
   clinicid ace_med
      <int>   <dbl>
 1        1       1
 2        2       1
 3        3       1
 4        4       1
 5        5       1
 6        6       1
 7        7       1
 8        8       1
 9        9       1
10       10       1
# ℹ 40 more rows
…
